{
    "config": {
        "fetch": false,
        "botKey": 1,
        "botWebInterface": {
            "start": true,
            "port": 3000
        }
    },
    "login": {
        "email": "not_saved",
        "password": "not_saved"
    },
    "bots": [
        {
            "characterName": "Firenus",
            "characterId": "6389196039127040",
            "runScript": "default.js",
            "server": "EU I"
        },
        {
            "characterName": "Rael",
            "characterId": "6011174247202816",
            "runScript": "default.js",
            "server": "EU I"
        },
        {
            "characterName": "AriaHarper",
            "characterId": "5513766260178944",
            "runScript": "default.js",
            "server": "EU I"
        },
        {
            "characterName": "Boismon",
            "characterId": "5760997546524672",
            "runScript": "default.js",
            "server": "EU I"
        },
        {
            "characterName": "Daedulaus",
            "characterId": "5826105459081216",
            "runScript": "default.js",
            "server": "EU I"
        },
        {
            "characterName": "Geoffriel",
            "characterId": "5178085749030912",
            "runScript": "default.js",
            "server": "EU I"
        }
    ]
}